simulation/qsim/Mult_Booth_Top.msim.vcd
$comment
	File created using the following command:
		vcd file Mult_Booth_Top.msim.vcd -direction
$end
$date
	Sun Jan 09 18:33:47 2022
$end
$version
	ModelSim Version 10.1d
$end
$timescale
	1ps
$end
$scope module Mult_Booth_PO_vlg_vec_tst $end
$var reg 1 ! clk_PO $end
$var reg 1 " enR_PO $end
$var reg 1 # init_PO $end
$var reg 6 $ MD_PO [5:0] $end
$var reg 6 % MR_PO [5:0] $end
$var wire 1 & count_PO [2] $end
$var wire 1 ' count_PO [1] $end
$var wire 1 ( count_PO [0] $end
$var wire 1 ) R_PO [11] $end
$var wire 1 * R_PO [10] $end
$var wire 1 + R_PO [9] $end
$var wire 1 , R_PO [8] $end
$var wire 1 - R_PO [7] $end
$var wire 1 . R_PO [6] $end
$var wire 1 / R_PO [5] $end
$var wire 1 0 R_PO [4] $end
$var wire 1 1 R_PO [3] $end
$var wire 1 2 R_PO [2] $end
$var wire 1 3 R_PO [1] $end
$var wire 1 4 R_PO [0] $end
$var wire 1 5 sampler $end
$scope module i1 $end
$var wire 1 6 gnd $end
$var wire 1 7 vcc $end
$var wire 1 8 unknown $end
$var tri1 1 9 devclrn $end
$var tri1 1 : devpor $end
$var tri1 1 ; devoe $end
$var wire 1 < aux_operacao~0_combout $end
$var wire 1 = operacao_parcial~6_combout $end
$var wire 1 > aux_operacao~1_combout $end
$var wire 1 ? aux_operacao~2_combout $end
$var wire 1 @ aux_operacao~3_combout $end
$var wire 1 A aux_operacao~4_combout $end
$var wire 1 B aux_operacao~5_combout $end
$var wire 1 C operacao_parcial~7_combout $end
$var wire 1 D Equal6~0_combout $end
$var wire 1 E Add1~0_combout $end
$var wire 1 F Add1~1_combout $end
$var wire 1 G aux_operacao~6_combout $end
$var wire 1 H aux_operacao~7_combout $end
$var wire 1 I aux_operacao~8_combout $end
$var wire 1 J Equal7~0_combout $end
$var wire 1 K operacao_parcial~8_combout $end
$var wire 1 L Add1~2_combout $end
$var wire 1 M aux_operacao~9_combout $end
$var wire 1 N aux_operacao~10_combout $end
$var wire 1 O aux_operacao~11_combout $end
$var wire 1 P operacao_parcial~9_combout $end
$var wire 1 Q Add1~3_combout $end
$var wire 1 R Add1~4_combout $end
$var wire 1 S aux_operacao~12_combout $end
$var wire 1 T aux_operacao~13_combout $end
$var wire 1 U aux_operacao~14_combout $end
$var wire 1 V operacao_parcial~10_combout $end
$var wire 1 W operacao_parcial~11_combout $end
$var wire 1 X operacao_parcial~12_combout $end
$var wire 1 Y Add1~5_combout $end
$var wire 1 Z aux_operacao~15_combout $end
$var wire 1 [ aux_operacao~16_combout $end
$var wire 1 \ aux_operacao~17_combout $end
$var wire 1 ] aux_operacao~18_combout $end
$var wire 1 ^ operacao_parcial~13_combout $end
$var wire 1 _ operacao_parcial~14_combout $end
$var wire 1 ` aux_operacao~19_combout $end
$var wire 1 a aux_operacao~20_combout $end
$var wire 1 b aux_operacao~21_combout $end
$var wire 1 c aux_operacao~22_combout $end
$var wire 1 d operacao_parcial~15_combout $end
$var wire 1 e operacao_parcial~16_combout $end
$var wire 1 f operacao_parcial~17_combout $end
$var wire 1 g operacao_parcial~18_combout $end
$var wire 1 h operacao_parcial~19_combout $end
$var wire 1 i operacao_parcial~20_combout $end
$var wire 1 j sel_operacao~0_combout $end
$var wire 1 k sel_operacao~1_combout $end
$var wire 1 l sel_operacao~2_combout $end
$var wire 1 m mr_reg~0_combout $end
$var wire 1 n mr_reg~1_combout $end
$var wire 1 o mr_reg~2_combout $end
$var wire 1 p mr_reg~3_combout $end
$var wire 1 q mr_reg~4_combout $end
$var wire 1 r mr_reg~5_combout $end
$var wire 1 s operacao_parcial~21_combout $end
$var wire 1 t operacao_parcial~22_combout $end
$var wire 1 u operacao_parcial~23_combout $end
$var wire 1 v MD_PO[0]~input_o $end
$var wire 1 w MD_PO[1]~input_o $end
$var wire 1 x MD_PO[2]~input_o $end
$var wire 1 y MD_PO[3]~input_o $end
$var wire 1 z MD_PO[4]~input_o $end
$var wire 1 { MD_PO[5]~input_o $end
$var wire 1 | MR_PO[1]~input_o $end
$var wire 1 } MR_PO[0]~input_o $end
$var wire 1 ~ MR_PO[3]~input_o $end
$var wire 1 !! MR_PO[2]~input_o $end
$var wire 1 "! MR_PO[5]~input_o $end
$var wire 1 #! MR_PO[4]~input_o $end
$var wire 1 $! count_PO[0]~output_o $end
$var wire 1 %! count_PO[1]~output_o $end
$var wire 1 &! count_PO[2]~output_o $end
$var wire 1 '! R_PO[0]~output_o $end
$var wire 1 (! R_PO[1]~output_o $end
$var wire 1 )! R_PO[2]~output_o $end
$var wire 1 *! R_PO[3]~output_o $end
$var wire 1 +! R_PO[4]~output_o $end
$var wire 1 ,! R_PO[5]~output_o $end
$var wire 1 -! R_PO[6]~output_o $end
$var wire 1 .! R_PO[7]~output_o $end
$var wire 1 /! R_PO[8]~output_o $end
$var wire 1 0! R_PO[9]~output_o $end
$var wire 1 1! R_PO[10]~output_o $end
$var wire 1 2! R_PO[11]~output_o $end
$var wire 1 3! clk_PO~input_o $end
$var wire 1 4! init_PO~input_o $end
$var wire 1 5! count_reg~0_combout $end
$var wire 1 6! Add0~0_combout $end
$var wire 1 7! Add0~1_combout $end
$var wire 1 8! R_reg[0]~12_combout $end
$var wire 1 9! enR_PO~input_o $end
$var wire 1 :! R_reg[0]~14_combout $end
$var wire 1 ;! R_reg[0]~13 $end
$var wire 1 <! R_reg[1]~15_combout $end
$var wire 1 =! R_reg[1]~16 $end
$var wire 1 >! R_reg[2]~17_combout $end
$var wire 1 ?! R_reg[2]~18 $end
$var wire 1 @! R_reg[3]~19_combout $end
$var wire 1 A! R_reg[3]~20 $end
$var wire 1 B! R_reg[4]~21_combout $end
$var wire 1 C! R_reg[4]~22 $end
$var wire 1 D! R_reg[5]~23_combout $end
$var wire 1 E! R_reg[5]~24 $end
$var wire 1 F! R_reg[6]~25_combout $end
$var wire 1 G! R_reg[6]~26 $end
$var wire 1 H! R_reg[7]~27_combout $end
$var wire 1 I! R_reg[7]~28 $end
$var wire 1 J! R_reg[8]~29_combout $end
$var wire 1 K! R_reg[8]~30 $end
$var wire 1 L! R_reg[9]~31_combout $end
$var wire 1 M! R_reg[9]~32 $end
$var wire 1 N! R_reg[10]~33_combout $end
$var wire 1 O! R_reg[10]~34 $end
$var wire 1 P! R_reg[11]~35_combout $end
$var wire 1 Q! sel_operacao [2] $end
$var wire 1 R! sel_operacao [1] $end
$var wire 1 S! sel_operacao [0] $end
$var wire 1 T! R_reg [11] $end
$var wire 1 U! R_reg [10] $end
$var wire 1 V! R_reg [9] $end
$var wire 1 W! R_reg [8] $end
$var wire 1 X! R_reg [7] $end
$var wire 1 Y! R_reg [6] $end
$var wire 1 Z! R_reg [5] $end
$var wire 1 [! R_reg [4] $end
$var wire 1 \! R_reg [3] $end
$var wire 1 ]! R_reg [2] $end
$var wire 1 ^! R_reg [1] $end
$var wire 1 _! R_reg [0] $end
$var wire 1 `! operacao_parcial [11] $end
$var wire 1 a! operacao_parcial [10] $end
$var wire 1 b! operacao_parcial [9] $end
$var wire 1 c! operacao_parcial [8] $end
$var wire 1 d! operacao_parcial [7] $end
$var wire 1 e! operacao_parcial [6] $end
$var wire 1 f! operacao_parcial [5] $end
$var wire 1 g! operacao_parcial [4] $end
$var wire 1 h! operacao_parcial [3] $end
$var wire 1 i! operacao_parcial [2] $end
$var wire 1 j! operacao_parcial [1] $end
$var wire 1 k! operacao_parcial [0] $end
$var wire 1 l! mr_reg [11] $end
$var wire 1 m! mr_reg [10] $end
$var wire 1 n! mr_reg [9] $end
$var wire 1 o! mr_reg [8] $end
$var wire 1 p! mr_reg [7] $end
$var wire 1 q! mr_reg [6] $end
$var wire 1 r! mr_reg [5] $end
$var wire 1 s! mr_reg [4] $end
$var wire 1 t! mr_reg [3] $end
$var wire 1 u! mr_reg [2] $end
$var wire 1 v! mr_reg [1] $end
$var wire 1 w! mr_reg [0] $end
$var wire 1 x! count_reg [2] $end
$var wire 1 y! count_reg [1] $end
$var wire 1 z! count_reg [0] $end
$var wire 1 {! md_reg [5] $end
$var wire 1 |! md_reg [4] $end
$var wire 1 }! md_reg [3] $end
$var wire 1 ~! md_reg [2] $end
$var wire 1 !" md_reg [1] $end
$var wire 1 "" md_reg [0] $end
$upscope $end
$upscope $end
$enddefinitions $end
#0
$dumpvars
0!
0"
1#
b10101 $
b11110 %
0r!
0q!
zp!
zo!
zn!
zm!
zl!
0z!
0y!
0x!
0""
0!"
0~!
0}!
0|!
0{!
0(
0'
0&
04
03
02
01
00
0/
0.
0-
0,
0+
0*
0)
x5
06
17
x8
19
1:
1;
0<
0=
0>
0?
0@
0A
0B
0C
0D
0E
0F
0G
0H
0I
0J
0K
0L
0M
0N
0O
0P
0Q
0R
0S
0T
0U
0V
0W
0X
0Y
0Z
0[
0\
0]
0^
0_
0`
0a
0b
0c
0d
0e
0f
0g
0h
0i
0j
0k
0l
1m
0n
1o
1p
0q
1r
0s
0t
0u
1v
0w
1x
0y
1z
0{
1|
0}
1~
1!!
0"!
1#!
0$!
0%!
0&!
0'!
0(!
0)!
0*!
0+!
0,!
0-!
0.!
0/!
00!
01!
02!
03!
14!
05!
06!
07!
08!
09!
1:!
0;!
0<!
1=!
0>!
0?!
0@!
1A!
0B!
0C!
0D!
1E!
0F!
0G!
0H!
1I!
0J!
0K!
0L!
1M!
0N!
0O!
0P!
0S!
0R!
zQ!
0_!
0^!
0]!
0\!
0[!
0Z!
0Y!
0X!
0W!
0V!
0U!
0T!
0k!
0j!
0i!
0h!
0g!
0f!
0e!
0d!
0c!
0b!
0a!
0`!
0w!
0v!
0u!
0t!
0s!
$end
#5000
1!
13!
05
1r!
1t!
1s!
1u!
1|!
1~!
1""
1Y
1R
1Q
1L
1E
0R
#10000
0!
03!
15
#15000
0#
1!
04!
13!
05
0:!
15!
0r
0o
1n
1k
#20000
0!
03!
15
#25000
1"
1!
19!
13!
05
1:!
0r!
0s!
1v!
1w!
1z!
0p
0m
1l
1u
1t
1s
1j
1i
1b
1A
16!
05!
1$!
1(
1h
1c
1e
1U
1I
1B
1d
1f
1V
1K
1C
1W
#30000
0!
03!
15
#35000
1!
13!
05
0t!
0u!
1R!
1S!
1`!
1j!
1a!
1b!
1c!
1d!
1e!
1g!
1i!
1y!
0z!
0n
0k
0u
0t
0s
0i
0b
1\
1M
0A
1>
1Z
1P!
1<!
1N!
1L!
1J!
1H!
1F!
1B!
1>!
1D
0C
15!
1%!
0$!
1'
0(
0h
0c
0e
0U
0I
0B
0d
1_
1P
0K
1d
0f
0_
0V
0P
0d
0W
#40000
0!
03!
15
#45000
1!
13!
05
0v!
0w!
0`!
0j!
0a!
0b!
0c!
0d!
0e!
0g!
0i!
1T!
1U!
1V!
1W!
1X!
1Y!
1[!
1]!
1^!
1z!
0l
0j
0\
1N
1@
17!
06!
05!
1J
0D
12!
11!
10!
1/!
1.!
1-!
1+!
1)!
1(!
1$!
1)
1*
1+
1,
1-
1.
10
12
13
1(
1]
1O
1B
1t
1e
1X
1f
1^
#50000
0!
03!
15
#55000
1!
13!
05
0R!
0S!
1b!
1d!
1f!
1x!
0y!
0z!
0M
0>
0Z
0M!
0L!
0I!
0H!
1D!
0J
1C
15!
1&!
0%!
0$!
1&
0'
0(
0N
0@
0]
1O!
0N!
1K!
0J!
0t
0e
0X
1P
0O
0B
0f
0^
0P!
1L!
0P
0C
#60000
0!
03!
15
#65000
1!
13!
05
0b!
0d!
0f!
0T!
0U!
0W!
0X!
1Z!
1z!
0L!
1I!
1P!
0O!
1N!
0K!
1J!
16!
05!
02!
01!
0/!
0.!
1,!
1$!
0)
0*
0,
0-
1/
1(
0J!
0P!
1M!
1L!
0N!
#70000
0"
0!
09!
03!
15
0:!
#75000
1!
13!
05
1y!
0z!
15!
1%!
0$!
1'
0(
#80000
0!
03!
15
#85000
1!
13!
05
1z!
07!
06!
05!
1$!
1(
#90000
0!
03!
15
#95000
1!
13!
05
0x!
0y!
0z!
15!
0&!
0%!
0$!
0&
0'
0(
#100000
0!
03!
15
#105000
1!
13!
05
1z!
16!
05!
1$!
1(
#110000
0!
03!
15
#115000
1!
13!
05
1y!
0z!
1D
15!
1%!
0$!
1'
0(
#120000
0!
03!
15
#125000
1!
13!
05
1z!
17!
06!
05!
1J
0D
1$!
1(
#130000
0!
03!
15
#135000
1!
13!
05
1x!
0y!
0z!
0J
15!
1&!
0%!
0$!
1&
0'
0(
#140000
0!
03!
15
#145000
1!
13!
05
1z!
16!
05!
1$!
1(
#150000
0!
03!
15
#155000
1!
13!
05
1y!
0z!
15!
1%!
0$!
1'
0(
#160000
0!
03!
15
#165000
1!
13!
05
1z!
07!
06!
05!
1$!
1(
#170000
0!
03!
15
#175000
1!
13!
05
0x!
0y!
0z!
15!
0&!
0%!
0$!
0&
0'
0(
#180000
0!
03!
15
#185000
1!
13!
05
1z!
16!
05!
1$!
1(
#190000
0!
03!
15
#195000
1!
13!
05
1y!
0z!
1D
15!
1%!
0$!
1'
0(
#200000
0!
03!
15
#205000
1!
13!
05
1z!
17!
06!
05!
1J
0D
1$!
1(
#210000
0!
03!
15
#215000
1!
13!
05
1x!
0y!
0z!
0J
15!
1&!
0%!
0$!
1&
0'
0(
#220000
0!
03!
15
#225000
1!
13!
05
1z!
16!
05!
1$!
1(
#230000
0!
03!
15
#235000
1!
13!
05
1y!
0z!
15!
1%!
0$!
1'
0(
#240000
0!
03!
15
#245000
1!
13!
05
1z!
07!
06!
05!
1$!
1(
#250000
0!
03!
15
#255000
1!
13!
05
0x!
0y!
0z!
15!
0&!
0%!
0$!
0&
0'
0(
#260000
0!
03!
15
#265000
1!
13!
05
1z!
16!
05!
1$!
1(
#270000
0!
03!
15
#275000
1!
13!
05
1y!
0z!
1D
15!
1%!
0$!
1'
0(
#280000
0!
03!
15
#285000
1!
13!
05
1z!
17!
06!
05!
1J
0D
1$!
1(
#290000
0!
03!
15
#295000
1!
13!
05
1x!
0y!
0z!
0J
15!
1&!
0%!
0$!
1&
0'
0(
#300000
0!
03!
15
#305000
1!
13!
05
1z!
16!
05!
1$!
1(
#310000
0!
03!
15
#315000
1!
13!
05
1y!
0z!
15!
1%!
0$!
1'
0(
#320000
0!
03!
15
#325000
1!
13!
05
1z!
07!
06!
05!
1$!
1(
#330000
0!
03!
15
#335000
1!
13!
05
0x!
0y!
0z!
15!
0&!
0%!
0$!
0&
0'
0(
#340000
0!
03!
15
#345000
1!
13!
05
1z!
16!
05!
1$!
1(
#350000
0!
03!
15
#355000
1!
13!
05
1y!
0z!
1D
15!
1%!
0$!
1'
0(
#360000
0!
03!
15
#365000
1!
13!
05
1z!
17!
06!
05!
1J
0D
1$!
1(
#370000
0!
03!
15
#375000
1!
13!
05
1x!
0y!
0z!
0J
15!
1&!
0%!
0$!
1&
0'
0(
#380000
0!
03!
15
#385000
1!
13!
05
1z!
16!
05!
1$!
1(
#390000
0!
03!
15
#395000
1!
13!
05
1y!
0z!
15!
1%!
0$!
1'
0(
#400000
0!
03!
15
#405000
1!
13!
05
1z!
07!
06!
05!
1$!
1(
#410000
0!
03!
15
#415000
1!
13!
05
0x!
0y!
0z!
15!
0&!
0%!
0$!
0&
0'
0(
#420000
0!
03!
15
#425000
1!
13!
05
1z!
16!
05!
1$!
1(
#430000
0!
03!
15
#435000
1!
13!
05
1y!
0z!
1D
15!
1%!
0$!
1'
0(
#440000
0!
03!
15
#445000
1!
13!
05
1z!
17!
06!
05!
1J
0D
1$!
1(
#450000
0!
03!
15
#455000
1!
13!
05
1x!
0y!
0z!
0J
15!
1&!
0%!
0$!
1&
0'
0(
#460000
0!
03!
15
#465000
1!
13!
05
1z!
16!
05!
1$!
1(
#470000
0!
03!
15
#475000
1!
13!
05
1y!
0z!
15!
1%!
0$!
1'
0(
#480000
0!
03!
15
#485000
1!
13!
05
1z!
07!
06!
05!
1$!
1(
#490000
0!
03!
15
#495000
1!
13!
05
0x!
0y!
0z!
15!
0&!
0%!
0$!
0&
0'
0(
#500000
0!
03!
15
#505000
1!
13!
05
1z!
16!
05!
1$!
1(
#510000
0!
03!
15
#515000
1!
13!
05
1y!
0z!
1D
15!
1%!
0$!
1'
0(
#520000
0!
03!
15
#525000
1!
13!
05
1z!
17!
06!
05!
1J
0D
1$!
1(
#530000
0!
03!
15
#535000
1!
13!
05
1x!
0y!
0z!
0J
15!
1&!
0%!
0$!
1&
0'
0(
#540000
0!
03!
15
#545000
1!
13!
05
1z!
16!
05!
1$!
1(
#550000
0!
03!
15
#555000
1!
13!
05
1y!
0z!
15!
1%!
0$!
1'
0(
#560000
0!
03!
15
#565000
1!
13!
05
1z!
07!
06!
05!
1$!
1(
#570000
0!
03!
15
#575000
1!
13!
05
0x!
0y!
0z!
15!
0&!
0%!
0$!
0&
0'
0(
#580000
0!
03!
15
#585000
1!
13!
05
1z!
16!
05!
1$!
1(
#590000
0!
03!
15
#595000
1!
13!
05
1y!
0z!
1D
15!
1%!
0$!
1'
0(
#600000
0!
03!
15
#605000
1!
13!
05
1z!
17!
06!
05!
1J
0D
1$!
1(
#610000
0!
03!
15
#615000
1!
13!
05
1x!
0y!
0z!
0J
15!
1&!
0%!
0$!
1&
0'
0(
#620000
0!
03!
15
#625000
1!
13!
05
1z!
16!
05!
1$!
1(
#630000
0!
03!
15
#635000
1!
13!
05
1y!
0z!
15!
1%!
0$!
1'
0(
#640000
0!
03!
15
#645000
1!
13!
05
1z!
07!
06!
05!
1$!
1(
#650000
0!
03!
15
#655000
1!
13!
05
0x!
0y!
0z!
15!
0&!
0%!
0$!
0&
0'
0(
#660000
0!
03!
15
#665000
1!
13!
05
1z!
16!
05!
1$!
1(
#670000
0!
03!
15
#675000
1!
13!
05
1y!
0z!
1D
15!
1%!
0$!
1'
0(
#680000
0!
03!
15
#685000
1!
13!
05
1z!
17!
06!
05!
1J
0D
1$!
1(
#690000
0!
03!
15
#695000
1!
13!
05
1x!
0y!
0z!
0J
15!
1&!
0%!
0$!
1&
0'
0(
#700000
0!
03!
15
#705000
1!
13!
05
1z!
16!
05!
1$!
1(
#710000
0!
03!
15
#715000
1!
13!
05
1y!
0z!
15!
1%!
0$!
1'
0(
#720000
0!
03!
15
#725000
1!
13!
05
1z!
07!
06!
05!
1$!
1(
#730000
0!
03!
15
#735000
1!
13!
05
0x!
0y!
0z!
15!
0&!
0%!
0$!
0&
0'
0(
#740000
0!
03!
15
#745000
1!
13!
05
1z!
16!
05!
1$!
1(
#750000
0!
03!
15
#755000
1!
13!
05
1y!
0z!
1D
15!
1%!
0$!
1'
0(
#760000
0!
03!
15
#765000
1!
13!
05
1z!
17!
06!
05!
1J
0D
1$!
1(
#770000
0!
03!
15
#775000
1!
13!
05
1x!
0y!
0z!
0J
15!
1&!
0%!
0$!
1&
0'
0(
#780000
0!
03!
15
#785000
1!
13!
05
1z!
16!
05!
1$!
1(
#790000
0!
03!
15
#795000
1!
13!
05
1y!
0z!
15!
1%!
0$!
1'
0(
#800000
0!
03!
15
#805000
1!
13!
05
1z!
07!
06!
05!
1$!
1(
#810000
0!
03!
15
#815000
1!
13!
05
0x!
0y!
0z!
15!
0&!
0%!
0$!
0&
0'
0(
#820000
0!
03!
15
#825000
1!
13!
05
1z!
16!
05!
1$!
1(
#830000
0!
03!
15
#835000
1!
13!
05
1y!
0z!
1D
15!
1%!
0$!
1'
0(
#840000
0!
03!
15
#845000
1!
13!
05
1z!
17!
06!
05!
1J
0D
1$!
1(
#850000
0!
03!
15
#855000
1!
13!
05
1x!
0y!
0z!
0J
15!
1&!
0%!
0$!
1&
0'
0(
#860000
0!
03!
15
#865000
1!
13!
05
1z!
16!
05!
1$!
1(
#870000
0!
03!
15
#875000
1!
13!
05
1y!
0z!
15!
1%!
0$!
1'
0(
#880000
0!
03!
15
#885000
1!
13!
05
1z!
07!
06!
05!
1$!
1(
#890000
0!
03!
15
#895000
1!
13!
05
0x!
0y!
0z!
15!
0&!
0%!
0$!
0&
0'
0(
#900000
0!
03!
15
#905000
1!
13!
05
1z!
16!
05!
1$!
1(
#910000
0!
03!
15
#915000
1!
13!
05
1y!
0z!
1D
15!
1%!
0$!
1'
0(
#920000
0!
03!
15
#925000
1!
13!
05
1z!
17!
06!
05!
1J
0D
1$!
1(
#930000
0!
03!
15
#935000
1!
13!
05
1x!
0y!
0z!
0J
15!
1&!
0%!
0$!
1&
0'
0(
#940000
0!
03!
15
#945000
1!
13!
05
1z!
16!
05!
1$!
1(
#950000
0!
03!
15
#955000
1!
13!
05
1y!
0z!
15!
1%!
0$!
1'
0(
#960000
0!
03!
15
#965000
1!
13!
05
1z!
07!
06!
05!
1$!
1(
#970000
0!
03!
15
#975000
1!
13!
05
0x!
0y!
0z!
15!
0&!
0%!
0$!
0&
0'
0(
#980000
0!
03!
15
#985000
1!
13!
05
1z!
16!
05!
1$!
1(
#990000
0!
03!
15
#995000
1!
13!
05
1y!
0z!
1D
15!
1%!
0$!
1'
0(
